[
    {
        "userId":"01john",
        "firstName":"John",
        "lastName":"Smith",
        "email":"john1@mail.com",
        "isAdmin":true,
        "mobileNumber": 123456789
    },
    {
        "userId":"02john",
        "firstName":"Johnny",
        "lastName":"Smith",
        "email":"johnny2@mail.com",
        "isAdmin":false,
        "mobileNumber": 987654321
    }
]